<?xml version="1.0" encoding="UTF-8"?>
<!DOCTYPE suite SYSTEM "http://testng.org/testng-1.0.dtd">
<suite verbose="0" name="Failed suite [Command line suite]">
  <test name="Command line test(failed)">
    <classes>
      <class name="FirstLoginTest">
        <methods>
          <include name="successlogin"/>
          <include name="incorrectemail"/>
          <include name="unexistuser"/>
          <include name="withoutemail"/>
        </methods>
      </class> <!-- FirstLoginTest -->
      <class name="ActivationProjectTest">
        <methods>
          <include name="ActivationProject"/>
          <include name="setUp"/>
        </methods>
      </class> <!-- ActivationProjectTest -->
      <class name="FilterUsersByStatusTest">
        <methods>
          <include name="FilteredByBlocked"/>
          <include name="FilteredByActive"/>
        </methods>
      </class> <!-- FilterUsersByStatusTest -->
      <class name="BlockingProjectTest">
        <methods>
          <include name="BlockingProject"/>
        </methods>
      </class> <!-- BlockingProjectTest -->
      <class name="FilterByUserNameTest">
        <methods>
          <include name="FilteredByUserName"/>
        </methods>
      </class> <!-- FilterByUserNameTest -->
      <class name="FilterByProjectNameTest">
        <methods>
          <include name="FilteredByProjectName"/>
        </methods>
      </class> <!-- FilterByProjectNameTest -->
      <class name="FilterByUserEmailTest">
        <methods>
          <include name="FilteredByUserEmail"/>
        </methods>
      </class> <!-- FilterByUserEmailTest -->
      <class name="ActivationUserTest">
        <methods>
          <include name="ActivationUser"/>
        </methods>
      </class> <!-- ActivationUserTest -->
      <class name="EditUserNameTest">
        <methods>
          <include name="edituser"/>
        </methods>
      </class> <!-- EditUserNameTest -->
      <class name="CreateUserTest">
        <methods>
          <include name="WithoutEmail"/>
          <include name="CreateNewUser"/>
          <include name="CreateExistingUser"/>
          <include name="WithoutSurname"/>
          <include name="WithEmptyFields"/>
          <include name="WithoutName"/>
          <include name="CanselingCreateUser"/>
        </methods>
      </class> <!-- CreateUserTest -->
      <class name="CreateProjectTest">
        <methods>
          <include name="CreateProject"/>
          <include name="CanselingCreateProject"/>
          <include name="CreateProjectWithoutName"/>
          <include name="CreateExistingProject"/>
        </methods>
      </class> <!-- CreateProjectTest -->
      <class name="BlockingUserTest">
        <methods>
          <include name="BlockingUser"/>
        </methods>
      </class> <!-- BlockingUserTest -->
      <class name="DeleteUserFromProjectTest">
        <methods>
          <include name="DeleteUSerFromProject"/>
        </methods>
      </class> <!-- DeleteUserFromProjectTest -->
      <class name="AddUserToProjectTest">
        <methods>
          <include name="AddRoleUser"/>
        </methods>
      </class> <!-- AddUserToProjectTest -->
      <class name="RenameProjectTest">
        <methods>
          <include name="renameproject"/>
        </methods>
      </class> <!-- RenameProjectTest -->
    </classes>
  </test> <!-- Command line test(failed) -->
</suite> <!-- Failed suite [Command line suite] -->
